<?xml version="1.0" encoding="UTF-8"?>
<svg width="14px" height="22px" viewBox="0 0 14 22" version="1.1" xmlns="http://www.w3.org/2000/svg" xmlns:xlink="http://www.w3.org/1999/xlink">
    <!-- Generator: Sketch 41 (35326) - http://www.bohemiancoding.com/sketch -->
    <title>Shape</title>
    <desc>Created with Sketch.</desc>
    <defs></defs>
    <g id="Template-1" stroke="none" stroke-width="1" fill="none" fill-rule="evenodd">
        <g id="CALENDAR" transform="translate(-1112.000000, -624.000000)" fill="#FFFFFF">
            <g id="Calendar" transform="translate(-107.000000, 0.000000)">
                <g id="Content" transform="translate(539.000000, 484.000000)">
                    <g id="Calendar" transform="translate(0.000000, 90.000000)">
                        <g id="header" transform="translate(1.000000, 0.000000)">
                            <g id="Date">
                                <polygon id="Shape" points="679.289062 52.621875 681.883024 50.0625 693 61.03125 681.883024 72 679.289062 69.440625 687.812078 61.03125"></polygon>
                            </g>
                        </g>
                    </g>
                </g>
            </g>
        </g>
    </g>
</svg>