<?xml version="1.0" encoding="UTF-8"?>
<svg width="43px" height="93px" viewBox="0 0 43 93" version="1.1" xmlns="http://www.w3.org/2000/svg" xmlns:xlink="http://www.w3.org/1999/xlink">
    <!-- Generator: Sketch 41 (35326) - http://www.bohemiancoding.com/sketch -->
    <title>Group 8</title>
    <desc>Created with Sketch.</desc>
    <defs></defs>
    <g id="Template-1-Spanish" stroke="none" stroke-width="1" fill="none" fill-rule="evenodd" stroke-linecap="square">
        <g id="Artboard" transform="translate(-1865.000000, -404.000000)" stroke="#FFFFFF" stroke-width="3">
            <g id="ParishConnect_Template1" transform="translate(-290.000000, -4.000000)">
                <g id="Slider" transform="translate(0.000000, 117.000000)">
                    <g id="Slider-Nav" transform="translate(362.000000, 294.000000)">
                        <g id="Group-8" transform="translate(1796.000000, 0.000000)">
                            <path d="M37.3198088,43.4179781 L0,0" id="Line"></path>
                            <path d="M0,87.4179781 L37.3198088,44" id="Line"></path>
                        </g>
                    </g>
                </g>
            </g>
        </g>
    </g>
</svg>