<?xml version="1.0" encoding="UTF-8"?>
<svg width="35px" height="5px" viewBox="0 0 35 5" version="1.1" xmlns="http://www.w3.org/2000/svg" xmlns:xlink="http://www.w3.org/1999/xlink">
    <!-- Generator: Sketch 41 (35326) - http://www.bohemiancoding.com/sketch -->
    <title>Rectangle 3</title>
    <desc>Created with Sketch.</desc>
    <defs></defs>
    <g id="MOBILE" stroke="none" stroke-width="1" fill="none" fill-rule="evenodd">
        <g id="Mobile" transform="translate(-302.000000, -19.000000)" fill="#D8D8D8">
            <g id="ParishConnect_Template1" transform="translate(-344.000000, 0.000000)">
                <g id="Header" transform="translate(343.000000, 0.000000)">
                    <g id="ADLA-Bar">
                        <rect id="Rectangle-3" x="303.05534" y="19" width="34.8908808" height="5" rx="2.5"></rect>
                    </g>
                </g>
            </g>
        </g>
    </g>
</svg>