<?xml version="1.0" encoding="UTF-8"?>
<svg width="21px" height="18px" viewBox="0 0 21 18" version="1.1" xmlns="http://www.w3.org/2000/svg" xmlns:xlink="http://www.w3.org/1999/xlink">
    <!-- Generator: Sketch 41 (35326) - http://www.bohemiancoding.com/sketch -->
    <title>icon-mail</title>
    <desc>Created with Sketch.</desc>
    <defs></defs>
    <g id="Template-1" stroke="none" stroke-width="1" fill="none" fill-rule="evenodd" opacity="0.54">
        <g id="STAFF-DIRECTORY" transform="translate(-1455.000000, -644.000000)">
            <g id="Staff-members" transform="translate(-107.000000, 112.000000)">
                <g id="Content" transform="translate(554.000000, 375.000000)">
                    <g id="STAFF1" transform="translate(4.000000, 94.000000)">
                        <g id="icon-mail" transform="translate(1002.000000, 59.000000)">
                            <polygon id="bounds" transform="translate(12.500104, 13.205506) scale(1, -1) translate(-12.500104, -13.205506) " points="25.0001042 0.470812245 0.000104166666 0.470812245 0.000104166666 25.9402 25.0001042 25.9402"></polygon>
                            <path d="M20.8334375,21.695302 L4.16677083,21.695302 C3.0209375,21.695302 2.0834375,20.7402 2.0834375,19.5728531 L2.0834375,6.83815918 C2.0834375,5.67081224 3.0209375,4.7157102 4.16677083,4.7157102 L20.8334375,4.7157102 C21.9792708,4.7157102 22.9167708,5.67081224 22.9167708,6.83815918 L22.9167708,19.5728531 C22.9167708,20.7402 21.9792708,21.695302 20.8334375,21.695302 L20.8334375,21.695302 Z M20.8334375,17.4504041 L12.5001042,12.1442816 L4.16677083,17.4504041 L4.16677083,19.5728531 L12.5001042,14.2667306 L20.8334375,19.5728531 L20.8334375,17.4504041 L20.8334375,17.4504041 Z" id="Shape" fill="#000000" transform="translate(12.500104, 13.205506) scale(1, -1) translate(-12.500104, -13.205506) "></path>
                        </g>
                    </g>
                </g>
            </g>
        </g>
    </g>
</svg>