<?xml version="1.0" encoding="UTF-8"?>
<svg width="13px" height="8px" viewBox="0 0 13 8" version="1.1" xmlns="http://www.w3.org/2000/svg" xmlns:xlink="http://www.w3.org/1999/xlink">
    <!-- Generator: Sketch 41 (35326) - http://www.bohemiancoding.com/sketch -->
    <title>Shape</title>
    <desc>Created with Sketch.</desc>
    <defs></defs>
    <g id="Template-1-Spanish" stroke="none" stroke-width="1" fill="none" fill-rule="evenodd" opacity="0.54">
        <g id="Artboard" transform="translate(-584.000000, -3352.000000)" fill="#FFFFFF">
            <g id="ParishConnect_Template1" transform="translate(-290.000000, -4.000000)">
                <g id="Worship-Section" transform="translate(719.000000, 3231.000000)">
                    <g id="Mass">
                        <g id="Days" transform="translate(51.000000, 103.000000)">
                            <g id="expand-more" transform="translate(104.095116, 22.000000)">
                                <polygon id="Shape" points="10.6 0.599975586 6 5.19997559 1.4 0.599975586 0 1.99997559 6 7.99997559 12 1.99997559"></polygon>
                            </g>
                        </g>
                    </g>
                </g>
            </g>
        </g>
    </g>
</svg>